{
  "$schema": "http://json-schema.org/draft-07/schema#",
  "$id": "https://tus.io/hook.schema.json",
  "title": "Tusd",
  "description": "Tusd HTTP hook",
  "type": "object",
  "properties": {
    "ID": {
      "type": "string",
      "description": "The upload's ID. Will be empty during the pre-create event."
    },
    "Size": {
      "type": "integer",
      "description": "The upload's total size in bytes."
    },
    "Offset": {
      "type": "integer",
      "description": "The upload's current offset in bytes."
    },
    "IsFinal": {
      "type": "boolean",
      "description": "These properties will be set to true, if the upload as a final or partial one. See the Concatenation extension for details: http://tus.io/protocols/resumable-upload.html#concatenation"
    },
    "IsPartial": {
      "type": "boolean",
      "description": "These properties will be set to true, if the upload as a final or partial one. See the Concatenation extension for details: http://tus.io/protocols/resumable-upload.html#concatenation"
    },
    "PartialUploads": {
      "type": ["array", "null"],
      "description": "If the upload is a final one, this value will be an array of upload IDs which are concatenated to produce the upload.",
      "items": {
        "type": "string"
      }
    },
    "MetaData": {
      "type": "object",
      "description": "The upload's meta data which can be supplied by the clients as it wishes. All keys and values in this object will be strings. Be aware that it may contain maliciously crafted values and you must not trust it without escaping it first!",
      "additionalProperties": {
        "type": "string"
      }
    }
  },
  "required": [
    "ID",
    "Size",
    "Offset",
    "IsFinal",
    "IsPartial",
    "PartialUploads",
    "MetaData"
  ]
}
